^C:\Users\Apple\Downloads\HW4-ship\HW4-ship\004-Skinning.vcxproj
C:\Users\Apple\Downloads\HW4-ship\HW4-ship\x64\Release\004-Skinning.ipdb
C:\Users\Apple\Downloads\HW4-ship\HW4-ship\x64\Release\004-Skinning.iobj
^C:\Users\Apple\Downloads\HW4-ship\HW4-ship\004-Skinning.vcxproj
C:\Users\Apple\Downloads\HW4-ship\HW4-ship\x64\Release\004-Skinning.ipdb
C:\Users\Apple\Downloads\HW4-ship\HW4-ship\x64\Release\004-Skinning.iobj
^C:\Users\Apple\Downloads\HW4-ship\HW4-ship\004-Skinning.vcxproj
C:\Users\Apple\Downloads\HW4-ship\HW4-ship\x64\Release\004-Skinning.ipdb
C:\Users\Apple\Downloads\HW4-ship\HW4-ship\x64\Release\004-Skinning.iobj
^C:\Users\Apple\Downloads\HW4-ship\HW4-ship\004-Skinning.vcxproj
C:\Users\Apple\Downloads\HW4-ship\HW4-ship\x64\Release\004-Skinning.ipdb
C:\Users\Apple\Downloads\HW4-ship\HW4-ship\x64\Release\004-Skinning.iobj
^C:\Users\Apple\Downloads\HW4-ship\HW4-ship\004-Skinning.vcxproj
C:\Users\Apple\Downloads\HW4-ship\HW4-ship\x64\Release\004-Skinning.ipdb
C:\Users\Apple\Downloads\HW4-ship\HW4-ship\x64\Release\004-Skinning.iobj
^C:\Users\Apple\Downloads\HW4-ship\HW4-ship\004-Skinning.vcxproj
C:\Users\Apple\Downloads\HW4-ship\HW4-ship\x64\Release\004-Skinning.ipdb
C:\Users\Apple\Downloads\HW4-ship\HW4-ship\x64\Release\004-Skinning.iobj
^C:\Users\Apple\Downloads\HW4-ship\HW4-ship\004-Skinning.vcxproj
C:\Users\Apple\Downloads\HW4-ship\HW4-ship\x64\Release\004-Skinning.ipdb
C:\Users\Apple\Downloads\HW4-ship\HW4-ship\x64\Release\004-Skinning.iobj
^C:\Users\Apple\Downloads\HW4-ship\HW4-ship\004-Skinning.vcxproj
C:\Users\Apple\Downloads\HW4-ship\HW4-ship\x64\Release\004-Skinning.ipdb
C:\Users\Apple\Downloads\HW4-ship\HW4-ship\x64\Release\004-Skinning.iobj
^C:\Users\Apple\Downloads\HW4-ship\HW4-ship\004-Skinning.vcxproj
C:\Users\Apple\Downloads\HW4-ship\HW4-ship\x64\Release\004-Skinning.ipdb
C:\Users\Apple\Downloads\HW4-ship\HW4-ship\x64\Release\004-Skinning.iobj
^C:\Users\Apple\Downloads\HW4-ship\HW4-ship\004-Skinning.vcxproj
C:\Users\Apple\Downloads\HW4-ship\HW4-ship\x64\Release\004-Skinning.ipdb
C:\Users\Apple\Downloads\HW4-ship\HW4-ship\x64\Release\004-Skinning.iobj
^C:\Users\Apple\Downloads\HW4-ship\HW4-ship\004-Skinning.vcxproj
C:\Users\Apple\Downloads\HW4-ship\HW4-ship\x64\Release\004-Skinning.ipdb
C:\Users\Apple\Downloads\HW4-ship\HW4-ship\x64\Release\004-Skinning.iobj
^C:\Users\Apple\Downloads\HW4-ship\HW4-ship\004-Skinning.vcxproj
C:\Users\Apple\Downloads\HW4-ship\HW4-ship\x64\Release\004-Skinning.ipdb
C:\Users\Apple\Downloads\HW4-ship\HW4-ship\x64\Release\004-Skinning.iobj
^C:\Users\Apple\Downloads\HW4-ship\HW4-ship\004-Skinning.vcxproj
C:\Users\Apple\Downloads\HW4-ship\HW4-ship\x64\Release\004-Skinning.ipdb
C:\Users\Apple\Downloads\HW4-ship\HW4-ship\x64\Release\004-Skinning.iobj
^C:\Users\Apple\Downloads\HW4-ship\HW4-ship\004-Skinning.vcxproj
C:\Users\Apple\Downloads\HW4-ship\HW4-ship\x64\Release\004-Skinning.ipdb
C:\Users\Apple\Downloads\HW4-ship\HW4-ship\x64\Release\004-Skinning.iobj
^C:\Users\Apple\Downloads\HW4-ship\HW4-ship\004-Skinning.vcxproj
C:\Users\Apple\Downloads\HW4-ship\HW4-ship\x64\Release\004-Skinning.ipdb
C:\Users\Apple\Downloads\HW4-ship\HW4-ship\x64\Release\004-Skinning.iobj
^C:\Users\Apple\Downloads\HW4-ship\HW4-ship\004-Skinning.vcxproj
C:\Users\Apple\Downloads\HW4-ship\HW4-ship\x64\Release\004-Skinning.ipdb
C:\Users\Apple\Downloads\HW4-ship\HW4-ship\x64\Release\004-Skinning.iobj
^C:\Users\Apple\Downloads\HW4-ship\HW4-ship\004-Skinning.vcxproj
C:\Users\Apple\Downloads\HW4-ship\HW4-ship\x64\Release\004-Skinning.ipdb
C:\Users\Apple\Downloads\HW4-ship\HW4-ship\x64\Release\004-Skinning.iobj
^C:\Users\Apple\Downloads\HW4-ship\HW4-ship\004-Skinning.vcxproj
C:\Users\Apple\Downloads\HW4-ship\HW4-ship\x64\Release\004-Skinning.ipdb
C:\Users\Apple\Downloads\HW4-ship\HW4-ship\x64\Release\004-Skinning.iobj
^C:\Users\Apple\Downloads\HW4-ship\HW4-ship\004-Skinning.vcxproj
C:\Users\Apple\Downloads\HW4-ship\HW4-ship\x64\Release\004-Skinning.ipdb
C:\Users\Apple\Downloads\HW4-ship\HW4-ship\x64\Release\004-Skinning.iobj
^C:\Users\Apple\Downloads\HW4-ship\HW4-ship\004-Skinning.vcxproj
C:\Users\Apple\Downloads\HW4-ship\HW4-ship\x64\Release\004-Skinning.ipdb
C:\Users\Apple\Downloads\HW4-ship\HW4-ship\x64\Release\004-Skinning.iobj
^C:\Users\Apple\Downloads\HW4-ship\HW4-ship\004-Skinning.vcxproj
C:\Users\Apple\Downloads\HW4-ship\HW4-ship\x64\Release\004-Skinning.ipdb
C:\Users\Apple\Downloads\HW4-ship\HW4-ship\x64\Release\004-Skinning.iobj
^C:\Users\Apple\Downloads\HW4-ship\HW4-ship\004-Skinning.vcxproj
C:\Users\Apple\Downloads\HW4-ship\HW4-ship\x64\Release\004-Skinning.ipdb
C:\Users\Apple\Downloads\HW4-ship\HW4-ship\x64\Release\004-Skinning.iobj
^C:\Users\Apple\Downloads\HW4-ship\HW4-ship\004-Skinning.vcxproj
C:\Users\Apple\Downloads\HW4-ship\HW4-ship\x64\Release\004-Skinning.ipdb
C:\Users\Apple\Downloads\HW4-ship\HW4-ship\x64\Release\004-Skinning.iobj
^C:\Users\Apple\Downloads\HW4-ship\HW4-ship\004-Skinning.vcxproj
C:\Users\Apple\Downloads\HW4-ship\HW4-ship\x64\Release\004-Skinning.ipdb
C:\Users\Apple\Downloads\HW4-ship\HW4-ship\x64\Release\004-Skinning.iobj
^C:\Users\Apple\Downloads\HW4-ship\HW4-ship\004-Skinning.vcxproj
C:\Users\Apple\Downloads\HW4-ship\HW4-ship\x64\Release\004-Skinning.ipdb
C:\Users\Apple\Downloads\HW4-ship\HW4-ship\x64\Release\004-Skinning.iobj
^C:\Users\Apple\Downloads\HW4-ship\HW4-ship\004-Skinning.vcxproj
C:\Users\Apple\Downloads\HW4-ship\HW4-ship\x64\Release\004-Skinning.ipdb
C:\Users\Apple\Downloads\HW4-ship\HW4-ship\x64\Release\004-Skinning.iobj
^C:\Users\Apple\Downloads\HW4-ship\HW4-ship\004-Skinning.vcxproj
C:\Users\Apple\Downloads\HW4-ship\HW4-ship\x64\Release\004-Skinning.ipdb
C:\Users\Apple\Downloads\HW4-ship\HW4-ship\x64\Release\004-Skinning.iobj
^C:\Users\Apple\Downloads\HW4-ship\HW4-ship\004-Skinning.vcxproj
C:\Users\Apple\Downloads\HW4-ship\HW4-ship\x64\Release\004-Skinning.ipdb
C:\Users\Apple\Downloads\HW4-ship\HW4-ship\x64\Release\004-Skinning.iobj
^C:\Users\Apple\Downloads\HW4-ship\HW4-ship\004-Skinning.vcxproj
C:\Users\Apple\Downloads\HW4-ship\HW4-ship\x64\Release\004-Skinning.ipdb
C:\Users\Apple\Downloads\HW4-ship\HW4-ship\x64\Release\004-Skinning.iobj
^C:\Users\Apple\Downloads\HW4-ship\HW4-ship\004-Skinning.vcxproj
C:\Users\Apple\Downloads\HW4-ship\HW4-ship\x64\Release\004-Skinning.ipdb
C:\Users\Apple\Downloads\HW4-ship\HW4-ship\x64\Release\004-Skinning.iobj
^C:\Users\Apple\Downloads\HW4-ship\HW4-ship\004-Skinning.vcxproj
C:\Users\Apple\Downloads\HW4-ship\HW4-ship\x64\Release\004-Skinning.ipdb
C:\Users\Apple\Downloads\HW4-ship\HW4-ship\x64\Release\004-Skinning.iobj
^C:\Users\Apple\Downloads\HW4-ship\HW4-ship\004-Skinning.vcxproj
C:\Users\Apple\Downloads\HW4-ship\HW4-ship\x64\Release\004-Skinning.ipdb
C:\Users\Apple\Downloads\HW4-ship\HW4-ship\x64\Release\004-Skinning.iobj
^C:\Users\Apple\Downloads\HW4-ship\HW4-ship\004-Skinning.vcxproj
C:\Users\Apple\Downloads\HW4-ship\HW4-ship\x64\Release\004-Skinning.ipdb
C:\Users\Apple\Downloads\HW4-ship\HW4-ship\x64\Release\004-Skinning.iobj
^C:\Users\Apple\Downloads\HW4-ship\HW4-ship\004-Skinning.vcxproj
C:\Users\Apple\Downloads\HW4-ship\HW4-ship\x64\Release\004-Skinning.ipdb
C:\Users\Apple\Downloads\HW4-ship\HW4-ship\x64\Release\004-Skinning.iobj
^C:\Users\Apple\Downloads\HW4-ship\HW4-ship\004-Skinning.vcxproj
C:\Users\Apple\Downloads\HW4-ship\HW4-ship\x64\Release\004-Skinning.ipdb
C:\Users\Apple\Downloads\HW4-ship\HW4-ship\x64\Release\004-Skinning.iobj
^C:\Users\Apple\Downloads\HW4-ship\HW4-ship\004-Skinning.vcxproj
C:\Users\Apple\Downloads\HW4-ship\HW4-ship\x64\Release\004-Skinning.ipdb
C:\Users\Apple\Downloads\HW4-ship\HW4-ship\x64\Release\004-Skinning.iobj
^C:\Users\Apple\Downloads\HW4-ship\HW4-ship\004-Skinning.vcxproj
C:\Users\Apple\Downloads\HW4-ship\HW4-ship\x64\Release\004-Skinning.ipdb
C:\Users\Apple\Downloads\HW4-ship\HW4-ship\x64\Release\004-Skinning.iobj
^C:\Users\Apple\Downloads\HW4-ship\HW4-ship\004-Skinning.vcxproj
C:\Users\Apple\Downloads\HW4-ship\HW4-ship\x64\Release\004-Skinning.ipdb
C:\Users\Apple\Downloads\HW4-ship\HW4-ship\x64\Release\004-Skinning.iobj
^C:\Users\Apple\Downloads\HW4-ship\HW4-ship\004-Skinning.vcxproj
C:\Users\Apple\Downloads\HW4-ship\HW4-ship\x64\Release\004-Skinning.ipdb
C:\Users\Apple\Downloads\HW4-ship\HW4-ship\x64\Release\004-Skinning.iobj
^C:\Users\Apple\Downloads\HW4-ship\HW4-ship\004-Skinning.vcxproj
C:\Users\Apple\Downloads\HW4-ship\HW4-ship\x64\Release\004-Skinning.ipdb
C:\Users\Apple\Downloads\HW4-ship\HW4-ship\x64\Release\004-Skinning.iobj
^C:\Users\Apple\Downloads\HW4-ship\HW4-ship\004-Skinning.vcxproj
C:\Users\Apple\Downloads\HW4-ship\HW4-ship\x64\Release\004-Skinning.ipdb
C:\Users\Apple\Downloads\HW4-ship\HW4-ship\x64\Release\004-Skinning.iobj
^C:\Users\Apple\Downloads\HW4-ship\HW4-ship\004-Skinning.vcxproj
C:\Users\Apple\Downloads\HW4-ship\HW4-ship\x64\Release\004-Skinning.ipdb
C:\Users\Apple\Downloads\HW4-ship\HW4-ship\x64\Release\004-Skinning.iobj
^C:\Users\Apple\Downloads\HW4-ship\HW4-ship\004-Skinning.vcxproj
C:\Users\Apple\Downloads\HW4-ship\HW4-ship\x64\Release\004-Skinning.ipdb
C:\Users\Apple\Downloads\HW4-ship\HW4-ship\x64\Release\004-Skinning.iobj
^C:\Users\Apple\Downloads\HW4-ship\HW4-ship\004-Skinning.vcxproj
C:\Users\Apple\Downloads\HW4-ship\HW4-ship\x64\Release\004-Skinning.ipdb
C:\Users\Apple\Downloads\HW4-ship\HW4-ship\x64\Release\004-Skinning.iobj
