^C:\USERS\APPLE\DOWNLOADS\HW4-SHIP\HW4-SHIP\MAIN.CPP
C:\WINDOWS\GLOBALIZATION\SORTING\SORTDEFAULT.NLS
C:\PROGRAM FILES (X86)\MICROSOFT VISUAL STUDIO\COMMUNITY\VC\TOOLS\MSVC\14.11.25503\BIN\HOSTX86\X64\1033\CLUI.DLL
C:\WINDOWS\SYSTEM32\RSAENH.DLL
C:\WINDOWS\SYSTEM32\TZRES.DLL
C:\USERS\APPLE\DOWNLOADS\HW4-SHIP\HW4-SHIP\EXT\GLEW\INCLUDE\GL\GLEW.H
C:\PROGRAM FILES (X86)\WINDOWS KITS\8.1\INCLUDE\UM\GL\GLU.H
C:\PROGRAM FILES (X86)\WINDOWS KITS\8.1\INCLUDE\SHARED\WINAPIFAMILY.H
C:\PROGRAM FILES (X86)\WINDOWS KITS\8.1\INCLUDE\UM\GL\GL.H
C:\USERS\APPLE\DOWNLOADS\HW4-SHIP\HW4-SHIP\EXT\GLFW\INCLUDE\GLFW\GLFW3.H
C:\PROGRAM FILES (X86)\WINDOWS KITS\10\INCLUDE\10.0.10240.0\UCRT\STDDEF.H
C:\PROGRAM FILES (X86)\WINDOWS KITS\10\INCLUDE\10.0.10240.0\UCRT\CORECRT.H
C:\PROGRAM FILES (X86)\MICROSOFT VISUAL STUDIO\COMMUNITY\VC\TOOLS\MSVC\14.11.25503\INCLUDE\VCRUNTIME.H
C:\PROGRAM FILES (X86)\MICROSOFT VISUAL STUDIO\COMMUNITY\VC\TOOLS\MSVC\14.11.25503\INCLUDE\SAL.H
C:\PROGRAM FILES (X86)\MICROSOFT VISUAL STUDIO\COMMUNITY\VC\TOOLS\MSVC\14.11.25503\INCLUDE\CONCURRENCYSAL.H
C:\PROGRAM FILES (X86)\MICROSOFT VISUAL STUDIO\COMMUNITY\VC\TOOLS\MSVC\14.11.25503\INCLUDE\VADEFS.H
C:\PROGRAM FILES (X86)\MICROSOFT VISUAL STUDIO\COMMUNITY\VC\TOOLS\MSVC\14.11.25503\INCLUDE\STDINT.H
C:\PROGRAM FILES (X86)\MICROSOFT VISUAL STUDIO\COMMUNITY\VC\TOOLS\MSVC\14.11.25503\INCLUDE\FSTREAM
C:\PROGRAM FILES (X86)\MICROSOFT VISUAL STUDIO\COMMUNITY\VC\TOOLS\MSVC\14.11.25503\INCLUDE\ISTREAM
C:\PROGRAM FILES (X86)\MICROSOFT VISUAL STUDIO\COMMUNITY\VC\TOOLS\MSVC\14.11.25503\INCLUDE\OSTREAM
C:\PROGRAM FILES (X86)\MICROSOFT VISUAL STUDIO\COMMUNITY\VC\TOOLS\MSVC\14.11.25503\INCLUDE\IOS
C:\PROGRAM FILES (X86)\MICROSOFT VISUAL STUDIO\COMMUNITY\VC\TOOLS\MSVC\14.11.25503\INCLUDE\XLOCNUM
C:\PROGRAM FILES (X86)\MICROSOFT VISUAL STUDIO\COMMUNITY\VC\TOOLS\MSVC\14.11.25503\INCLUDE\CLIMITS
C:\PROGRAM FILES (X86)\MICROSOFT VISUAL STUDIO\COMMUNITY\VC\TOOLS\MSVC\14.11.25503\INCLUDE\YVALS.H
C:\PROGRAM FILES (X86)\MICROSOFT VISUAL STUDIO\COMMUNITY\VC\TOOLS\MSVC\14.11.25503\INCLUDE\XKEYCHECK.H
C:\PROGRAM FILES (X86)\MICROSOFT VISUAL STUDIO\COMMUNITY\VC\TOOLS\MSVC\14.11.25503\INCLUDE\CRTDEFS.H
C:\PROGRAM FILES (X86)\MICROSOFT VISUAL STUDIO\COMMUNITY\VC\TOOLS\MSVC\14.11.25503\INCLUDE\USE_ANSI.H
C:\PROGRAM FILES (X86)\MICROSOFT VISUAL STUDIO\COMMUNITY\VC\TOOLS\MSVC\14.11.25503\INCLUDE\LIMITS.H
C:\PROGRAM FILES (X86)\MICROSOFT VISUAL STUDIO\COMMUNITY\VC\TOOLS\MSVC\14.11.25503\INCLUDE\CMATH
C:\PROGRAM FILES (X86)\MICROSOFT VISUAL STUDIO\COMMUNITY\VC\TOOLS\MSVC\14.11.25503\INCLUDE\CSTDLIB
C:\PROGRAM FILES (X86)\WINDOWS KITS\10\INCLUDE\10.0.10240.0\UCRT\STDLIB.H
C:\PROGRAM FILES (X86)\WINDOWS KITS\10\INCLUDE\10.0.10240.0\UCRT\CORECRT_MALLOC.H
C:\PROGRAM FILES (X86)\WINDOWS KITS\10\INCLUDE\10.0.10240.0\UCRT\CORECRT_SEARCH.H
C:\PROGRAM FILES (X86)\WINDOWS KITS\10\INCLUDE\10.0.10240.0\UCRT\CORECRT_WSTDLIB.H
C:\PROGRAM FILES (X86)\WINDOWS KITS\10\INCLUDE\10.0.10240.0\UCRT\MATH.H
C:\PROGRAM FILES (X86)\MICROSOFT VISUAL STUDIO\COMMUNITY\VC\TOOLS\MSVC\14.11.25503\INCLUDE\XTGMATH.H
C:\PROGRAM FILES (X86)\MICROSOFT VISUAL STUDIO\COMMUNITY\VC\TOOLS\MSVC\14.11.25503\INCLUDE\XTR1COMMON
C:\PROGRAM FILES (X86)\MICROSOFT VISUAL STUDIO\COMMUNITY\VC\TOOLS\MSVC\14.11.25503\INCLUDE\CSTDIO
C:\PROGRAM FILES (X86)\WINDOWS KITS\10\INCLUDE\10.0.10240.0\UCRT\STDIO.H
C:\PROGRAM FILES (X86)\WINDOWS KITS\10\INCLUDE\10.0.10240.0\UCRT\CORECRT_WSTDIO.H
C:\PROGRAM FILES (X86)\WINDOWS KITS\10\INCLUDE\10.0.10240.0\UCRT\CORECRT_STDIO_CONFIG.H
C:\PROGRAM FILES (X86)\MICROSOFT VISUAL STUDIO\COMMUNITY\VC\TOOLS\MSVC\14.11.25503\INCLUDE\STREAMBUF
C:\PROGRAM FILES (X86)\MICROSOFT VISUAL STUDIO\COMMUNITY\VC\TOOLS\MSVC\14.11.25503\INCLUDE\XIOSBASE
C:\PROGRAM FILES (X86)\MICROSOFT VISUAL STUDIO\COMMUNITY\VC\TOOLS\MSVC\14.11.25503\INCLUDE\XLOCALE
C:\PROGRAM FILES (X86)\MICROSOFT VISUAL STUDIO\COMMUNITY\VC\TOOLS\MSVC\14.11.25503\INCLUDE\CSTRING
C:\PROGRAM FILES (X86)\WINDOWS KITS\10\INCLUDE\10.0.10240.0\UCRT\STRING.H
C:\PROGRAM FILES (X86)\WINDOWS KITS\10\INCLUDE\10.0.10240.0\UCRT\CORECRT_MEMORY.H
C:\PROGRAM FILES (X86)\WINDOWS KITS\10\INCLUDE\10.0.10240.0\UCRT\CORECRT_MEMCPY_S.H
C:\PROGRAM FILES (X86)\WINDOWS KITS\10\INCLUDE\10.0.10240.0\UCRT\ERRNO.H
C:\PROGRAM FILES (X86)\MICROSOFT VISUAL STUDIO\COMMUNITY\VC\TOOLS\MSVC\14.11.25503\INCLUDE\VCRUNTIME_STRING.H
C:\PROGRAM FILES (X86)\WINDOWS KITS\10\INCLUDE\10.0.10240.0\UCRT\CORECRT_WSTRING.H
C:\PROGRAM FILES (X86)\MICROSOFT VISUAL STUDIO\COMMUNITY\VC\TOOLS\MSVC\14.11.25503\INCLUDE\STDEXCEPT
C:\PROGRAM FILES (X86)\MICROSOFT VISUAL STUDIO\COMMUNITY\VC\TOOLS\MSVC\14.11.25503\INCLUDE\EXCEPTION
C:\PROGRAM FILES (X86)\MICROSOFT VISUAL STUDIO\COMMUNITY\VC\TOOLS\MSVC\14.11.25503\INCLUDE\TYPE_TRAITS
C:\PROGRAM FILES (X86)\MICROSOFT VISUAL STUDIO\COMMUNITY\VC\TOOLS\MSVC\14.11.25503\INCLUDE\XSTDDEF
C:\PROGRAM FILES (X86)\MICROSOFT VISUAL STUDIO\COMMUNITY\VC\TOOLS\MSVC\14.11.25503\INCLUDE\CSTDDEF
C:\PROGRAM FILES (X86)\MICROSOFT VISUAL STUDIO\COMMUNITY\VC\TOOLS\MSVC\14.11.25503\INCLUDE\INITIALIZER_LIST
C:\PROGRAM FILES (X86)\WINDOWS KITS\10\INCLUDE\10.0.10240.0\UCRT\MALLOC.H
C:\PROGRAM FILES (X86)\MICROSOFT VISUAL STUDIO\COMMUNITY\VC\TOOLS\MSVC\14.11.25503\INCLUDE\VCRUNTIME_EXCEPTION.H
C:\PROGRAM FILES (X86)\MICROSOFT VISUAL STUDIO\COMMUNITY\VC\TOOLS\MSVC\14.11.25503\INCLUDE\EH.H
C:\PROGRAM FILES (X86)\WINDOWS KITS\10\INCLUDE\10.0.10240.0\UCRT\CORECRT_TERMINATE.H
C:\PROGRAM FILES (X86)\MICROSOFT VISUAL STUDIO\COMMUNITY\VC\TOOLS\MSVC\14.11.25503\INCLUDE\XSTRING
C:\PROGRAM FILES (X86)\MICROSOFT VISUAL STUDIO\COMMUNITY\VC\TOOLS\MSVC\14.11.25503\INCLUDE\XMEMORY0
C:\PROGRAM FILES (X86)\MICROSOFT VISUAL STUDIO\COMMUNITY\VC\TOOLS\MSVC\14.11.25503\INCLUDE\CSTDINT
C:\PROGRAM FILES (X86)\MICROSOFT VISUAL STUDIO\COMMUNITY\VC\TOOLS\MSVC\14.11.25503\INCLUDE\LIMITS
C:\PROGRAM FILES (X86)\MICROSOFT VISUAL STUDIO\COMMUNITY\VC\TOOLS\MSVC\14.11.25503\INCLUDE\YMATH.H
C:\PROGRAM FILES (X86)\MICROSOFT VISUAL STUDIO\COMMUNITY\VC\TOOLS\MSVC\14.11.25503\INCLUDE\CFLOAT
C:\PROGRAM FILES (X86)\WINDOWS KITS\10\INCLUDE\10.0.10240.0\UCRT\FLOAT.H
C:\PROGRAM FILES (X86)\MICROSOFT VISUAL STUDIO\COMMUNITY\VC\TOOLS\MSVC\14.11.25503\INCLUDE\CWCHAR
C:\PROGRAM FILES (X86)\WINDOWS KITS\10\INCLUDE\10.0.10240.0\UCRT\WCHAR.H
C:\PROGRAM FILES (X86)\WINDOWS KITS\10\INCLUDE\10.0.10240.0\UCRT\CORECRT_WCONIO.H
C:\PROGRAM FILES (X86)\WINDOWS KITS\10\INCLUDE\10.0.10240.0\UCRT\CORECRT_WCTYPE.H
C:\PROGRAM FILES (X86)\WINDOWS KITS\10\INCLUDE\10.0.10240.0\UCRT\CORECRT_WDIRECT.H
C:\PROGRAM FILES (X86)\WINDOWS KITS\10\INCLUDE\10.0.10240.0\UCRT\CORECRT_WIO.H
C:\PROGRAM FILES (X86)\WINDOWS KITS\10\INCLUDE\10.0.10240.0\UCRT\CORECRT_SHARE.H
C:\PROGRAM FILES (X86)\WINDOWS KITS\10\INCLUDE\10.0.10240.0\UCRT\CORECRT_WPROCESS.H
C:\PROGRAM FILES (X86)\WINDOWS KITS\10\INCLUDE\10.0.10240.0\UCRT\CORECRT_WTIME.H
C:\PROGRAM FILES (X86)\WINDOWS KITS\10\INCLUDE\10.0.10240.0\UCRT\SYS\STAT.H
C:\PROGRAM FILES (X86)\WINDOWS KITS\10\INCLUDE\10.0.10240.0\UCRT\SYS\TYPES.H
C:\PROGRAM FILES (X86)\MICROSOFT VISUAL STUDIO\COMMUNITY\VC\TOOLS\MSVC\14.11.25503\INCLUDE\NEW
C:\PROGRAM FILES (X86)\MICROSOFT VISUAL STUDIO\COMMUNITY\VC\TOOLS\MSVC\14.11.25503\INCLUDE\VCRUNTIME_NEW.H
C:\PROGRAM FILES (X86)\MICROSOFT VISUAL STUDIO\COMMUNITY\VC\TOOLS\MSVC\14.11.25503\INCLUDE\XUTILITY
C:\PROGRAM FILES (X86)\MICROSOFT VISUAL STUDIO\COMMUNITY\VC\TOOLS\MSVC\14.11.25503\INCLUDE\UTILITY
C:\PROGRAM FILES (X86)\MICROSOFT VISUAL STUDIO\COMMUNITY\VC\TOOLS\MSVC\14.11.25503\INCLUDE\IOSFWD
C:\PROGRAM FILES (X86)\WINDOWS KITS\10\INCLUDE\10.0.10240.0\UCRT\CRTDBG.H
C:\PROGRAM FILES (X86)\MICROSOFT VISUAL STUDIO\COMMUNITY\VC\TOOLS\MSVC\14.11.25503\INCLUDE\VCRUNTIME_NEW_DEBUG.H
C:\PROGRAM FILES (X86)\MICROSOFT VISUAL STUDIO\COMMUNITY\VC\TOOLS\MSVC\14.11.25503\INCLUDE\XATOMIC0.H
C:\PROGRAM FILES (X86)\MICROSOFT VISUAL STUDIO\COMMUNITY\VC\TOOLS\MSVC\14.11.25503\INCLUDE\INTRIN0.H
C:\PROGRAM FILES (X86)\MICROSOFT VISUAL STUDIO\COMMUNITY\VC\TOOLS\MSVC\14.11.25503\INCLUDE\TYPEINFO
C:\PROGRAM FILES (X86)\MICROSOFT VISUAL STUDIO\COMMUNITY\VC\TOOLS\MSVC\14.11.25503\INCLUDE\VCRUNTIME_TYPEINFO.H
C:\PROGRAM FILES (X86)\MICROSOFT VISUAL STUDIO\COMMUNITY\VC\TOOLS\MSVC\14.11.25503\INCLUDE\XLOCINFO
C:\PROGRAM FILES (X86)\MICROSOFT VISUAL STUDIO\COMMUNITY\VC\TOOLS\MSVC\14.11.25503\INCLUDE\XLOCINFO.H
C:\PROGRAM FILES (X86)\WINDOWS KITS\10\INCLUDE\10.0.10240.0\UCRT\CTYPE.H
C:\PROGRAM FILES (X86)\WINDOWS KITS\10\INCLUDE\10.0.10240.0\UCRT\LOCALE.H
C:\PROGRAM FILES (X86)\MICROSOFT VISUAL STUDIO\COMMUNITY\VC\TOOLS\MSVC\14.11.25503\INCLUDE\XFACET
C:\PROGRAM FILES (X86)\MICROSOFT VISUAL STUDIO\COMMUNITY\VC\TOOLS\MSVC\14.11.25503\INCLUDE\SYSTEM_ERROR
C:\PROGRAM FILES (X86)\MICROSOFT VISUAL STUDIO\COMMUNITY\VC\TOOLS\MSVC\14.11.25503\INCLUDE\CERRNO
C:\PROGRAM FILES (X86)\MICROSOFT VISUAL STUDIO\COMMUNITY\VC\TOOLS\MSVC\14.11.25503\INCLUDE\XCALL_ONCE.H
C:\PROGRAM FILES (X86)\WINDOWS KITS\10\INCLUDE\10.0.10240.0\UCRT\SHARE.H
C:\PROGRAM FILES (X86)\MICROSOFT VISUAL STUDIO\COMMUNITY\VC\TOOLS\MSVC\14.11.25503\INCLUDE\VECTOR
C:\PROGRAM FILES (X86)\MICROSOFT VISUAL STUDIO\COMMUNITY\VC\TOOLS\MSVC\14.11.25503\INCLUDE\XMEMORY
C:\PROGRAM FILES (X86)\MICROSOFT VISUAL STUDIO\COMMUNITY\VC\TOOLS\MSVC\14.11.25503\INCLUDE\IOSTREAM
C:\USERS\APPLE\DOWNLOADS\HW4-SHIP\HW4-SHIP\EXT\EIGEN\EIGEN
C:\USERS\APPLE\DOWNLOADS\HW4-SHIP\HW4-SHIP\EXT\EIGEN\DENSE
C:\USERS\APPLE\DOWNLOADS\HW4-SHIP\HW4-SHIP\EXT\EIGEN\CORE
C:\USERS\APPLE\DOWNLOADS\HW4-SHIP\HW4-SHIP\EXT\EIGEN\SRC\CORE\UTIL\DISABLESTUPIDWARNINGS.H
C:\USERS\APPLE\DOWNLOADS\HW4-SHIP\HW4-SHIP\EXT\EIGEN\SRC\CORE\UTIL\MACROS.H
C:\PROGRAM FILES (X86)\MICROSOFT VISUAL STUDIO\COMMUNITY\VC\TOOLS\MSVC\14.11.25503\INCLUDE\COMPLEX
C:\PROGRAM FILES (X86)\MICROSOFT VISUAL STUDIO\COMMUNITY\VC\TOOLS\MSVC\14.11.25503\INCLUDE\CCOMPLEX
C:\PROGRAM FILES (X86)\MICROSOFT VISUAL STUDIO\COMMUNITY\VC\TOOLS\MSVC\14.11.25503\INCLUDE\SSTREAM
C:\PROGRAM FILES (X86)\MICROSOFT VISUAL STUDIO\COMMUNITY\VC\TOOLS\MSVC\14.11.25503\INCLUDE\STRING
C:\PROGRAM FILES (X86)\MICROSOFT VISUAL STUDIO\COMMUNITY\VC\TOOLS\MSVC\14.11.25503\INCLUDE\XSTRING_INSERT.H
C:\PROGRAM FILES (X86)\MICROSOFT VISUAL STUDIO\COMMUNITY\VC\TOOLS\MSVC\14.11.25503\INCLUDE\XCOMPLEX
C:\USERS\APPLE\DOWNLOADS\HW4-SHIP\HW4-SHIP\EXT\EIGEN\SRC\CORE\UTIL\MKL_SUPPORT.H
C:\PROGRAM FILES (X86)\MICROSOFT VISUAL STUDIO\COMMUNITY\VC\TOOLS\MSVC\14.11.25503\INCLUDE\EMMINTRIN.H
C:\PROGRAM FILES (X86)\MICROSOFT VISUAL STUDIO\COMMUNITY\VC\TOOLS\MSVC\14.11.25503\INCLUDE\XMMINTRIN.H
C:\PROGRAM FILES (X86)\MICROSOFT VISUAL STUDIO\COMMUNITY\VC\TOOLS\MSVC\14.11.25503\INCLUDE\MMINTRIN.H
C:\PROGRAM FILES (X86)\MICROSOFT VISUAL STUDIO\COMMUNITY\VC\TOOLS\MSVC\14.11.25503\INCLUDE\CASSERT
C:\PROGRAM FILES (X86)\WINDOWS KITS\10\INCLUDE\10.0.10240.0\UCRT\ASSERT.H
C:\PROGRAM FILES (X86)\MICROSOFT VISUAL STUDIO\COMMUNITY\VC\TOOLS\MSVC\14.11.25503\INCLUDE\FUNCTIONAL
C:\PROGRAM FILES (X86)\MICROSOFT VISUAL STUDIO\COMMUNITY\VC\TOOLS\MSVC\14.11.25503\INCLUDE\TUPLE
C:\PROGRAM FILES (X86)\MICROSOFT VISUAL STUDIO\COMMUNITY\VC\TOOLS\MSVC\14.11.25503\INCLUDE\XFUNCTIONAL
C:\PROGRAM FILES (X86)\MICROSOFT VISUAL STUDIO\COMMUNITY\VC\TOOLS\MSVC\14.11.25503\INCLUDE\ALGORITHM
C:\PROGRAM FILES (X86)\MICROSOFT VISUAL STUDIO\COMMUNITY\VC\TOOLS\MSVC\14.11.25503\INCLUDE\INTRIN.H
C:\PROGRAM FILES (X86)\MICROSOFT VISUAL STUDIO\COMMUNITY\VC\TOOLS\MSVC\14.11.25503\INCLUDE\SETJMP.H
C:\PROGRAM FILES (X86)\MICROSOFT VISUAL STUDIO\COMMUNITY\VC\TOOLS\MSVC\14.11.25503\INCLUDE\IMMINTRIN.H
C:\PROGRAM FILES (X86)\MICROSOFT VISUAL STUDIO\COMMUNITY\VC\TOOLS\MSVC\14.11.25503\INCLUDE\WMMINTRIN.H
C:\PROGRAM FILES (X86)\MICROSOFT VISUAL STUDIO\COMMUNITY\VC\TOOLS\MSVC\14.11.25503\INCLUDE\NMMINTRIN.H
C:\PROGRAM FILES (X86)\MICROSOFT VISUAL STUDIO\COMMUNITY\VC\TOOLS\MSVC\14.11.25503\INCLUDE\SMMINTRIN.H
C:\PROGRAM FILES (X86)\MICROSOFT VISUAL STUDIO\COMMUNITY\VC\TOOLS\MSVC\14.11.25503\INCLUDE\TMMINTRIN.H
C:\PROGRAM FILES (X86)\MICROSOFT VISUAL STUDIO\COMMUNITY\VC\TOOLS\MSVC\14.11.25503\INCLUDE\PMMINTRIN.H
C:\PROGRAM FILES (X86)\MICROSOFT VISUAL STUDIO\COMMUNITY\VC\TOOLS\MSVC\14.11.25503\INCLUDE\ZMMINTRIN.H
C:\PROGRAM FILES (X86)\MICROSOFT VISUAL STUDIO\COMMUNITY\VC\TOOLS\MSVC\14.11.25503\INCLUDE\AMMINTRIN.H
C:\USERS\APPLE\DOWNLOADS\HW4-SHIP\HW4-SHIP\EXT\EIGEN\SRC\CORE\UTIL\CONSTANTS.H
C:\USERS\APPLE\DOWNLOADS\HW4-SHIP\HW4-SHIP\EXT\EIGEN\SRC\CORE\UTIL\FORWARDDECLARATIONS.H
C:\USERS\APPLE\DOWNLOADS\HW4-SHIP\HW4-SHIP\EXT\EIGEN\SRC\CORE\UTIL\META.H
C:\USERS\APPLE\DOWNLOADS\HW4-SHIP\HW4-SHIP\EXT\EIGEN\SRC\CORE\UTIL\STATICASSERT.H
C:\USERS\APPLE\DOWNLOADS\HW4-SHIP\HW4-SHIP\EXT\EIGEN\SRC\CORE\UTIL\XPRHELPER.H
C:\USERS\APPLE\DOWNLOADS\HW4-SHIP\HW4-SHIP\EXT\EIGEN\SRC\CORE\UTIL\MEMORY.H
C:\USERS\APPLE\DOWNLOADS\HW4-SHIP\HW4-SHIP\EXT\EIGEN\SRC\CORE\NUMTRAITS.H
C:\USERS\APPLE\DOWNLOADS\HW4-SHIP\HW4-SHIP\EXT\EIGEN\SRC\CORE\MATHFUNCTIONS.H
C:\USERS\APPLE\DOWNLOADS\HW4-SHIP\HW4-SHIP\EXT\EIGEN\SRC\CORE\GENERICPACKETMATH.H
C:\USERS\APPLE\DOWNLOADS\HW4-SHIP\HW4-SHIP\EXT\EIGEN\SRC\CORE\ARCH\SSE\PACKETMATH.H
C:\USERS\APPLE\DOWNLOADS\HW4-SHIP\HW4-SHIP\EXT\EIGEN\SRC\CORE\ARCH\SSE\MATHFUNCTIONS.H
C:\USERS\APPLE\DOWNLOADS\HW4-SHIP\HW4-SHIP\EXT\EIGEN\SRC\CORE\ARCH\SSE\COMPLEX.H
C:\USERS\APPLE\DOWNLOADS\HW4-SHIP\HW4-SHIP\EXT\EIGEN\SRC\CORE\ARCH\DEFAULT\SETTINGS.H
C:\USERS\APPLE\DOWNLOADS\HW4-SHIP\HW4-SHIP\EXT\EIGEN\SRC\CORE\FUNCTORS.H
C:\USERS\APPLE\DOWNLOADS\HW4-SHIP\HW4-SHIP\EXT\EIGEN\SRC\CORE\DENSECOEFFSBASE.H
C:\USERS\APPLE\DOWNLOADS\HW4-SHIP\HW4-SHIP\EXT\EIGEN\SRC\CORE\DENSEBASE.H
C:\USERS\APPLE\DOWNLOADS\HW4-SHIP\HW4-SHIP\EXT\EIGEN\SRC\PLUGINS\BLOCKMETHODS.H
C:\USERS\APPLE\DOWNLOADS\HW4-SHIP\HW4-SHIP\EXT\EIGEN\SRC\CORE\MATRIXBASE.H
C:\USERS\APPLE\DOWNLOADS\HW4-SHIP\HW4-SHIP\EXT\EIGEN\SRC\PLUGINS\COMMONCWISEUNARYOPS.H
C:\USERS\APPLE\DOWNLOADS\HW4-SHIP\HW4-SHIP\EXT\EIGEN\SRC\PLUGINS\COMMONCWISEBINARYOPS.H
C:\USERS\APPLE\DOWNLOADS\HW4-SHIP\HW4-SHIP\EXT\EIGEN\SRC\PLUGINS\MATRIXCWISEUNARYOPS.H
C:\USERS\APPLE\DOWNLOADS\HW4-SHIP\HW4-SHIP\EXT\EIGEN\SRC\PLUGINS\MATRIXCWISEBINARYOPS.H
C:\USERS\APPLE\DOWNLOADS\HW4-SHIP\HW4-SHIP\EXT\EIGEN\SRC\CORE\EIGENBASE.H
C:\USERS\APPLE\DOWNLOADS\HW4-SHIP\HW4-SHIP\EXT\EIGEN\SRC\CORE\ASSIGN.H
C:\USERS\APPLE\DOWNLOADS\HW4-SHIP\HW4-SHIP\EXT\EIGEN\SRC\CORE\UTIL\BLASUTIL.H
C:\USERS\APPLE\DOWNLOADS\HW4-SHIP\HW4-SHIP\EXT\EIGEN\SRC\CORE\DENSESTORAGE.H
C:\USERS\APPLE\DOWNLOADS\HW4-SHIP\HW4-SHIP\EXT\EIGEN\SRC\CORE\NESTBYVALUE.H
C:\USERS\APPLE\DOWNLOADS\HW4-SHIP\HW4-SHIP\EXT\EIGEN\SRC\CORE\FORCEALIGNEDACCESS.H
C:\USERS\APPLE\DOWNLOADS\HW4-SHIP\HW4-SHIP\EXT\EIGEN\SRC\CORE\RETURNBYVALUE.H
C:\USERS\APPLE\DOWNLOADS\HW4-SHIP\HW4-SHIP\EXT\EIGEN\SRC\CORE\NOALIAS.H
C:\USERS\APPLE\DOWNLOADS\HW4-SHIP\HW4-SHIP\EXT\EIGEN\SRC\CORE\PLAINOBJECTBASE.H
C:\USERS\APPLE\DOWNLOADS\HW4-SHIP\HW4-SHIP\EXT\EIGEN\SRC\CORE\MATRIX.H
C:\USERS\APPLE\DOWNLOADS\HW4-SHIP\HW4-SHIP\EXT\EIGEN\SRC\CORE\ARRAY.H
C:\USERS\APPLE\DOWNLOADS\HW4-SHIP\HW4-SHIP\EXT\EIGEN\SRC\CORE\CWISEBINARYOP.H
C:\USERS\APPLE\DOWNLOADS\HW4-SHIP\HW4-SHIP\EXT\EIGEN\SRC\CORE\CWISEUNARYOP.H
C:\USERS\APPLE\DOWNLOADS\HW4-SHIP\HW4-SHIP\EXT\EIGEN\SRC\CORE\CWISENULLARYOP.H
C:\USERS\APPLE\DOWNLOADS\HW4-SHIP\HW4-SHIP\EXT\EIGEN\SRC\CORE\CWISEUNARYVIEW.H
C:\USERS\APPLE\DOWNLOADS\HW4-SHIP\HW4-SHIP\EXT\EIGEN\SRC\CORE\SELFCWISEBINARYOP.H
C:\USERS\APPLE\DOWNLOADS\HW4-SHIP\HW4-SHIP\EXT\EIGEN\SRC\CORE\DOT.H
C:\USERS\APPLE\DOWNLOADS\HW4-SHIP\HW4-SHIP\EXT\EIGEN\SRC\CORE\STABLENORM.H
C:\USERS\APPLE\DOWNLOADS\HW4-SHIP\HW4-SHIP\EXT\EIGEN\SRC\CORE\MAPBASE.H
C:\USERS\APPLE\DOWNLOADS\HW4-SHIP\HW4-SHIP\EXT\EIGEN\SRC\CORE\STRIDE.H
C:\USERS\APPLE\DOWNLOADS\HW4-SHIP\HW4-SHIP\EXT\EIGEN\SRC\CORE\MAP.H
C:\USERS\APPLE\DOWNLOADS\HW4-SHIP\HW4-SHIP\EXT\EIGEN\SRC\CORE\BLOCK.H
C:\USERS\APPLE\DOWNLOADS\HW4-SHIP\HW4-SHIP\EXT\EIGEN\SRC\CORE\VECTORBLOCK.H
C:\USERS\APPLE\DOWNLOADS\HW4-SHIP\HW4-SHIP\EXT\EIGEN\SRC\CORE\REF.H
C:\USERS\APPLE\DOWNLOADS\HW4-SHIP\HW4-SHIP\EXT\EIGEN\SRC\CORE\TRANSPOSE.H
C:\USERS\APPLE\DOWNLOADS\HW4-SHIP\HW4-SHIP\EXT\EIGEN\SRC\CORE\DIAGONALMATRIX.H
C:\USERS\APPLE\DOWNLOADS\HW4-SHIP\HW4-SHIP\EXT\EIGEN\SRC\CORE\DIAGONAL.H
C:\USERS\APPLE\DOWNLOADS\HW4-SHIP\HW4-SHIP\EXT\EIGEN\SRC\CORE\DIAGONALPRODUCT.H
C:\USERS\APPLE\DOWNLOADS\HW4-SHIP\HW4-SHIP\EXT\EIGEN\SRC\CORE\PERMUTATIONMATRIX.H
C:\USERS\APPLE\DOWNLOADS\HW4-SHIP\HW4-SHIP\EXT\EIGEN\SRC\CORE\TRANSPOSITIONS.H
C:\USERS\APPLE\DOWNLOADS\HW4-SHIP\HW4-SHIP\EXT\EIGEN\SRC\CORE\REDUX.H
C:\USERS\APPLE\DOWNLOADS\HW4-SHIP\HW4-SHIP\EXT\EIGEN\SRC\CORE\VISITOR.H
C:\USERS\APPLE\DOWNLOADS\HW4-SHIP\HW4-SHIP\EXT\EIGEN\SRC\CORE\FUZZY.H
C:\USERS\APPLE\DOWNLOADS\HW4-SHIP\HW4-SHIP\EXT\EIGEN\SRC\CORE\IO.H
C:\USERS\APPLE\DOWNLOADS\HW4-SHIP\HW4-SHIP\EXT\EIGEN\SRC\CORE\SWAP.H
C:\USERS\APPLE\DOWNLOADS\HW4-SHIP\HW4-SHIP\EXT\EIGEN\SRC\CORE\COMMAINITIALIZER.H
C:\USERS\APPLE\DOWNLOADS\HW4-SHIP\HW4-SHIP\EXT\EIGEN\SRC\CORE\FLAGGED.H
C:\USERS\APPLE\DOWNLOADS\HW4-SHIP\HW4-SHIP\EXT\EIGEN\SRC\CORE\PRODUCTBASE.H
C:\USERS\APPLE\DOWNLOADS\HW4-SHIP\HW4-SHIP\EXT\EIGEN\SRC\CORE\GENERALPRODUCT.H
C:\USERS\APPLE\DOWNLOADS\HW4-SHIP\HW4-SHIP\EXT\EIGEN\SRC\CORE\TRIANGULARMATRIX.H
C:\USERS\APPLE\DOWNLOADS\HW4-SHIP\HW4-SHIP\EXT\EIGEN\SRC\CORE\SELFADJOINTVIEW.H
C:\USERS\APPLE\DOWNLOADS\HW4-SHIP\HW4-SHIP\EXT\EIGEN\SRC\CORE\PRODUCTS\GENERALBLOCKPANELKERNEL.H
C:\USERS\APPLE\DOWNLOADS\HW4-SHIP\HW4-SHIP\EXT\EIGEN\SRC\CORE\PRODUCTS\PARALLELIZER.H
C:\USERS\APPLE\DOWNLOADS\HW4-SHIP\HW4-SHIP\EXT\EIGEN\SRC\CORE\PRODUCTS\COEFFBASEDPRODUCT.H
C:\USERS\APPLE\DOWNLOADS\HW4-SHIP\HW4-SHIP\EXT\EIGEN\SRC\CORE\PRODUCTS\GENERALMATRIXVECTOR.H
C:\USERS\APPLE\DOWNLOADS\HW4-SHIP\HW4-SHIP\EXT\EIGEN\SRC\CORE\PRODUCTS\GENERALMATRIXMATRIX.H
C:\USERS\APPLE\DOWNLOADS\HW4-SHIP\HW4-SHIP\EXT\EIGEN\SRC\CORE\SOLVETRIANGULAR.H
C:\USERS\APPLE\DOWNLOADS\HW4-SHIP\HW4-SHIP\EXT\EIGEN\SRC\CORE\PRODUCTS\GENERALMATRIXMATRIXTRIANGULAR.H
C:\USERS\APPLE\DOWNLOADS\HW4-SHIP\HW4-SHIP\EXT\EIGEN\SRC\CORE\PRODUCTS\SELFADJOINTMATRIXVECTOR.H
C:\USERS\APPLE\DOWNLOADS\HW4-SHIP\HW4-SHIP\EXT\EIGEN\SRC\CORE\PRODUCTS\SELFADJOINTMATRIXMATRIX.H
C:\USERS\APPLE\DOWNLOADS\HW4-SHIP\HW4-SHIP\EXT\EIGEN\SRC\CORE\PRODUCTS\SELFADJOINTPRODUCT.H
C:\USERS\APPLE\DOWNLOADS\HW4-SHIP\HW4-SHIP\EXT\EIGEN\SRC\CORE\PRODUCTS\SELFADJOINTRANK2UPDATE.H
C:\USERS\APPLE\DOWNLOADS\HW4-SHIP\HW4-SHIP\EXT\EIGEN\SRC\CORE\PRODUCTS\TRIANGULARMATRIXVECTOR.H
C:\USERS\APPLE\DOWNLOADS\HW4-SHIP\HW4-SHIP\EXT\EIGEN\SRC\CORE\PRODUCTS\TRIANGULARMATRIXMATRIX.H
C:\USERS\APPLE\DOWNLOADS\HW4-SHIP\HW4-SHIP\EXT\EIGEN\SRC\CORE\PRODUCTS\TRIANGULARSOLVERMATRIX.H
C:\USERS\APPLE\DOWNLOADS\HW4-SHIP\HW4-SHIP\EXT\EIGEN\SRC\CORE\PRODUCTS\TRIANGULARSOLVERVECTOR.H
C:\USERS\APPLE\DOWNLOADS\HW4-SHIP\HW4-SHIP\EXT\EIGEN\SRC\CORE\BANDMATRIX.H
C:\USERS\APPLE\DOWNLOADS\HW4-SHIP\HW4-SHIP\EXT\EIGEN\SRC\CORE\COREITERATORS.H
C:\USERS\APPLE\DOWNLOADS\HW4-SHIP\HW4-SHIP\EXT\EIGEN\SRC\CORE\BOOLEANREDUX.H
C:\USERS\APPLE\DOWNLOADS\HW4-SHIP\HW4-SHIP\EXT\EIGEN\SRC\CORE\SELECT.H
C:\USERS\APPLE\DOWNLOADS\HW4-SHIP\HW4-SHIP\EXT\EIGEN\SRC\CORE\VECTORWISEOP.H
C:\USERS\APPLE\DOWNLOADS\HW4-SHIP\HW4-SHIP\EXT\EIGEN\SRC\CORE\RANDOM.H
C:\USERS\APPLE\DOWNLOADS\HW4-SHIP\HW4-SHIP\EXT\EIGEN\SRC\CORE\REPLICATE.H
C:\USERS\APPLE\DOWNLOADS\HW4-SHIP\HW4-SHIP\EXT\EIGEN\SRC\CORE\REVERSE.H
C:\USERS\APPLE\DOWNLOADS\HW4-SHIP\HW4-SHIP\EXT\EIGEN\SRC\CORE\ARRAYBASE.H
C:\USERS\APPLE\DOWNLOADS\HW4-SHIP\HW4-SHIP\EXT\EIGEN\SRC\PLUGINS\ARRAYCWISEUNARYOPS.H
C:\USERS\APPLE\DOWNLOADS\HW4-SHIP\HW4-SHIP\EXT\EIGEN\SRC\PLUGINS\ARRAYCWISEBINARYOPS.H
C:\USERS\APPLE\DOWNLOADS\HW4-SHIP\HW4-SHIP\EXT\EIGEN\SRC\CORE\ARRAYWRAPPER.H
C:\USERS\APPLE\DOWNLOADS\HW4-SHIP\HW4-SHIP\EXT\EIGEN\SRC\CORE\GLOBALFUNCTIONS.H
C:\USERS\APPLE\DOWNLOADS\HW4-SHIP\HW4-SHIP\EXT\EIGEN\SRC\CORE\UTIL\REENABLESTUPIDWARNINGS.H
C:\USERS\APPLE\DOWNLOADS\HW4-SHIP\HW4-SHIP\EXT\EIGEN\LU
C:\USERS\APPLE\DOWNLOADS\HW4-SHIP\HW4-SHIP\EXT\EIGEN\SRC\MISC\SOLVE.H
C:\USERS\APPLE\DOWNLOADS\HW4-SHIP\HW4-SHIP\EXT\EIGEN\SRC\MISC\KERNEL.H
C:\USERS\APPLE\DOWNLOADS\HW4-SHIP\HW4-SHIP\EXT\EIGEN\SRC\MISC\IMAGE.H
C:\USERS\APPLE\DOWNLOADS\HW4-SHIP\HW4-SHIP\EXT\EIGEN\SRC\LU\FULLPIVLU.H
C:\USERS\APPLE\DOWNLOADS\HW4-SHIP\HW4-SHIP\EXT\EIGEN\SRC\LU\PARTIALPIVLU.H
C:\USERS\APPLE\DOWNLOADS\HW4-SHIP\HW4-SHIP\EXT\EIGEN\SRC\LU\DETERMINANT.H
C:\USERS\APPLE\DOWNLOADS\HW4-SHIP\HW4-SHIP\EXT\EIGEN\SRC\LU\INVERSE.H
C:\USERS\APPLE\DOWNLOADS\HW4-SHIP\HW4-SHIP\EXT\EIGEN\SRC\LU\ARCH\INVERSE_SSE.H
C:\USERS\APPLE\DOWNLOADS\HW4-SHIP\HW4-SHIP\EXT\EIGEN\CHOLESKY
C:\USERS\APPLE\DOWNLOADS\HW4-SHIP\HW4-SHIP\EXT\EIGEN\SRC\CHOLESKY\LLT.H
C:\USERS\APPLE\DOWNLOADS\HW4-SHIP\HW4-SHIP\EXT\EIGEN\SRC\CHOLESKY\LDLT.H
C:\USERS\APPLE\DOWNLOADS\HW4-SHIP\HW4-SHIP\EXT\EIGEN\QR
C:\USERS\APPLE\DOWNLOADS\HW4-SHIP\HW4-SHIP\EXT\EIGEN\JACOBI
C:\USERS\APPLE\DOWNLOADS\HW4-SHIP\HW4-SHIP\EXT\EIGEN\SRC\JACOBI\JACOBI.H
C:\USERS\APPLE\DOWNLOADS\HW4-SHIP\HW4-SHIP\EXT\EIGEN\HOUSEHOLDER
C:\USERS\APPLE\DOWNLOADS\HW4-SHIP\HW4-SHIP\EXT\EIGEN\SRC\HOUSEHOLDER\HOUSEHOLDER.H
C:\USERS\APPLE\DOWNLOADS\HW4-SHIP\HW4-SHIP\EXT\EIGEN\SRC\HOUSEHOLDER\HOUSEHOLDERSEQUENCE.H
C:\USERS\APPLE\DOWNLOADS\HW4-SHIP\HW4-SHIP\EXT\EIGEN\SRC\HOUSEHOLDER\BLOCKHOUSEHOLDER.H
C:\USERS\APPLE\DOWNLOADS\HW4-SHIP\HW4-SHIP\EXT\EIGEN\SRC\QR\HOUSEHOLDERQR.H
C:\USERS\APPLE\DOWNLOADS\HW4-SHIP\HW4-SHIP\EXT\EIGEN\SRC\QR\FULLPIVHOUSEHOLDERQR.H
C:\USERS\APPLE\DOWNLOADS\HW4-SHIP\HW4-SHIP\EXT\EIGEN\SRC\QR\COLPIVHOUSEHOLDERQR.H
C:\USERS\APPLE\DOWNLOADS\HW4-SHIP\HW4-SHIP\EXT\EIGEN\SVD
C:\USERS\APPLE\DOWNLOADS\HW4-SHIP\HW4-SHIP\EXT\EIGEN\SRC\SVD\JACOBISVD.H
C:\USERS\APPLE\DOWNLOADS\HW4-SHIP\HW4-SHIP\EXT\EIGEN\SRC\SVD\UPPERBIDIAGONALIZATION.H
C:\USERS\APPLE\DOWNLOADS\HW4-SHIP\HW4-SHIP\EXT\EIGEN\GEOMETRY
C:\USERS\APPLE\DOWNLOADS\HW4-SHIP\HW4-SHIP\EXT\EIGEN\SRC\GEOMETRY\ORTHOMETHODS.H
C:\USERS\APPLE\DOWNLOADS\HW4-SHIP\HW4-SHIP\EXT\EIGEN\SRC\GEOMETRY\EULERANGLES.H
C:\USERS\APPLE\DOWNLOADS\HW4-SHIP\HW4-SHIP\EXT\EIGEN\SRC\GEOMETRY\HOMOGENEOUS.H
C:\USERS\APPLE\DOWNLOADS\HW4-SHIP\HW4-SHIP\EXT\EIGEN\SRC\GEOMETRY\ROTATIONBASE.H
C:\USERS\APPLE\DOWNLOADS\HW4-SHIP\HW4-SHIP\EXT\EIGEN\SRC\GEOMETRY\ROTATION2D.H
C:\USERS\APPLE\DOWNLOADS\HW4-SHIP\HW4-SHIP\EXT\EIGEN\SRC\GEOMETRY\QUATERNION.H
C:\USERS\APPLE\DOWNLOADS\HW4-SHIP\HW4-SHIP\EXT\EIGEN\SRC\GEOMETRY\ANGLEAXIS.H
C:\USERS\APPLE\DOWNLOADS\HW4-SHIP\HW4-SHIP\EXT\EIGEN\SRC\GEOMETRY\TRANSFORM.H
C:\USERS\APPLE\DOWNLOADS\HW4-SHIP\HW4-SHIP\EXT\EIGEN\SRC\GEOMETRY\TRANSLATION.H
C:\USERS\APPLE\DOWNLOADS\HW4-SHIP\HW4-SHIP\EXT\EIGEN\SRC\GEOMETRY\SCALING.H
C:\USERS\APPLE\DOWNLOADS\HW4-SHIP\HW4-SHIP\EXT\EIGEN\SRC\GEOMETRY\HYPERPLANE.H
C:\USERS\APPLE\DOWNLOADS\HW4-SHIP\HW4-SHIP\EXT\EIGEN\SRC\GEOMETRY\PARAMETRIZEDLINE.H
C:\USERS\APPLE\DOWNLOADS\HW4-SHIP\HW4-SHIP\EXT\EIGEN\SRC\GEOMETRY\ALIGNEDBOX.H
C:\USERS\APPLE\DOWNLOADS\HW4-SHIP\HW4-SHIP\EXT\EIGEN\SRC\GEOMETRY\UMEYAMA.H
C:\USERS\APPLE\DOWNLOADS\HW4-SHIP\HW4-SHIP\EXT\EIGEN\SRC\GEOMETRY\ARCH\GEOMETRY_SSE.H
C:\USERS\APPLE\DOWNLOADS\HW4-SHIP\HW4-SHIP\EXT\EIGEN\EIGENVALUES
C:\USERS\APPLE\DOWNLOADS\HW4-SHIP\HW4-SHIP\EXT\EIGEN\SRC\EIGENVALUES\TRIDIAGONALIZATION.H
C:\USERS\APPLE\DOWNLOADS\HW4-SHIP\HW4-SHIP\EXT\EIGEN\SRC\EIGENVALUES\REALSCHUR.H
C:\USERS\APPLE\DOWNLOADS\HW4-SHIP\HW4-SHIP\EXT\EIGEN\SRC\EIGENVALUES\HESSENBERGDECOMPOSITION.H
C:\USERS\APPLE\DOWNLOADS\HW4-SHIP\HW4-SHIP\EXT\EIGEN\SRC\EIGENVALUES\EIGENSOLVER.H
C:\USERS\APPLE\DOWNLOADS\HW4-SHIP\HW4-SHIP\EXT\EIGEN\SRC\EIGENVALUES\SELFADJOINTEIGENSOLVER.H
C:\USERS\APPLE\DOWNLOADS\HW4-SHIP\HW4-SHIP\EXT\EIGEN\SRC\EIGENVALUES\GENERALIZEDSELFADJOINTEIGENSOLVER.H
C:\USERS\APPLE\DOWNLOADS\HW4-SHIP\HW4-SHIP\EXT\EIGEN\SRC\EIGENVALUES\COMPLEXSCHUR.H
C:\USERS\APPLE\DOWNLOADS\HW4-SHIP\HW4-SHIP\EXT\EIGEN\SRC\EIGENVALUES\COMPLEXEIGENSOLVER.H
C:\USERS\APPLE\DOWNLOADS\HW4-SHIP\HW4-SHIP\EXT\EIGEN\SRC\EIGENVALUES\REALQZ.H
C:\USERS\APPLE\DOWNLOADS\HW4-SHIP\HW4-SHIP\EXT\EIGEN\SRC\EIGENVALUES\GENERALIZEDEIGENSOLVER.H
C:\USERS\APPLE\DOWNLOADS\HW4-SHIP\HW4-SHIP\EXT\EIGEN\SRC\EIGENVALUES\MATRIXBASEEIGENVALUES.H
