^C:\USERS\APPLE\DOWNLOADS\HW4-SHIP\HW4-SHIP\X64\RELEASE\MAIN.OBJ
C:\USERS\APPLE\DOWNLOADS\HW4-SHIP\HW4-SHIP\X64\RELEASE\004-SKINNING.EXE
C:\USERS\APPLE\DOWNLOADS\HW4-SHIP\HW4-SHIP\X64\RELEASE\004-SKINNING.PDB
